<?xml version="1.0" encoding="utf-8"?>
<!-- Generator: Adobe Illustrator 21.0.0, SVG Export Plug-In . SVG Version: 6.00 Build 0)  -->
<svg version="1.1" id="Capa_1" xmlns="http://www.w3.org/2000/svg" xmlns:xlink="http://www.w3.org/1999/xlink" x="0px" y="0px"
	 viewBox="0 0 512 512" style="enable-background:new 0 0 512 512;" xml:space="preserve">
<path d="M192.9,440.9c-6.5,0-11.8-5.3-11.8-11.8c0-6.5,5.3-11.8,11.8-11.8h31.6c-0.1-0.2-0.3-0.3-0.4-0.5
	c-13.3-16.3-33.2-41.5-52.8-69.1c-19.7-27.1-37.6-56-53.2-85.6c-16.6-32.7-25.1-60-25.1-81c0-22.1,4.3-43.6,12.9-63.9
	C131.7,56.4,191,17,257.2,17c21.9,0,43.3,4.4,63.7,12.9c3.9,1.6,6.6,5.2,7.1,9.4c0.5,4.2-1.2,8.3-4.6,10.8c-2,1.5-4.5,2.4-7.1,2.4
	c-1.6,0-3.1-0.3-4.6-0.9c-17.4-7.3-35.8-11-54.6-11s-37.2,3.7-54.6,11c-52.1,22.1-85.8,72.9-85.8,129.6c0,17.4,7.6,41,22.5,70.3
	c15.1,28.7,32.4,56.5,51.4,82.8c19.5,27.5,38.9,52.1,51.8,67.9c3.8,4.7,7.7,9.3,11.4,13.8c0.8,0.9,2,1.4,3.2,1.4
	c1.3,0,2.5-0.5,3.3-1.5c3.8-4.5,7.6-9.1,11.4-13.8c12.9-15.8,32.4-40.5,51.8-67.9c19-26.3,36.3-54.2,51.4-82.9
	c14.9-29.2,22.5-52.9,22.5-70.2c0-37.6-14.6-72.9-41.1-99.4c-3-2.9-4.2-7.3-3.2-11.4c1.1-4.1,4.3-7.3,8.4-8.4c1-0.3,2-0.4,3-0.4
	c3.2,0,6.3,1.3,8.5,3.6c31,30.9,48,72.2,48,116c0,21.1-8.4,48.3-25.1,80.9c-15.6,29.7-33.5,58.6-53.2,85.8
	c-20.1,28.4-39.8,53.2-52.8,69.1c-0.1,0.2-0.3,0.3-0.4,0.5h31.6c6.5,0,11.8,5.3,11.8,11.8c0,6.5-5.3,11.8-11.8,11.8H192.9z"/>
<path d="M257,256.8c-11,0-21.8-2.1-32.1-6.4c-36.8-15.3-57.9-54.7-50.1-93.8c7.8-39.1,42.4-67.5,82.2-67.5c0,0,0,0,0,0
	c6.5,0,11.8,5.3,11.8,11.8c0,6.5-5.3,11.8-11.8,11.8c-28.7,0-53.6,20.4-59.1,48.5c-5.6,28.1,9.6,56.5,36.1,67.5
	c7.4,3,15.1,4.6,23.1,4.6c20.2,0,39-10,50.2-26.8c15.9-23.8,12.8-55.9-7.5-76.1c-3-2.9-4.2-7.3-3.2-11.4c1.1-4.1,4.3-7.3,8.4-8.4
	c1-0.3,2-0.4,3-0.4c3.2,0,6.3,1.3,8.5,3.6c28.1,28.1,32.5,72.7,10.4,105.8C311.1,242.8,285,256.8,257,256.8z"/>
<path d="M41.3,497c-10,0-19.4-5.4-24.5-14c-4.9-8.3-5-18.7-0.3-27.1l49.2-88.1c5.1-9,14.6-14.5,24.9-14.5l57.2,0
	c6.5,0,11.8,5.3,11.8,11.8s-5.3,11.8-11.8,11.8l-57.2,0c-1.8,0-3.5,1-4.4,2.5l-49.2,88c-0.7,1.2-0.7,2.5,0,3.6
	c0.9,1.5,2.6,2.5,4.3,2.5h431.2c1.8,0,3.4-0.9,4.3-2.4c0.7-1.1,0.7-2.5,0-3.6l-49.3-88.2c-0.9-1.5-2.6-2.5-4.4-2.5l-57.2,0
	c-6.5,0-11.8-5.3-11.8-11.8s5.3-11.8,11.8-11.8l57.2,0c10.3,0,19.8,5.5,24.9,14.5l49.3,88.1c4.7,8.4,4.6,18.8-0.3,27.1
	c-5.1,8.6-14.5,14-24.5,14C472.7,497,41.3,497,41.3,497z"/>
<path d="M353.1,432.9c-3.9,0-7.6-2-9.8-5.2c-3.6-5.4-2.1-12.7,3.3-16.3l24-16c1.9-1.3,4.2-2,6.5-2h32c6.5,0,11.8,5.3,11.8,11.8
	c0,6.5-5.3,11.8-11.8,11.8h-28.5l-21,14C357.7,432.3,355.4,432.9,353.1,432.9z"/>
<path d="M369.1,465c-6.5,0-11.8-5.3-11.8-11.8s5.3-11.8,11.8-11.8h64.1c6.5,0,11.8,5.3,11.8,11.8s-5.3,11.8-11.8,11.8H369.1z"/>
<path d="M160.9,432.9c-2.3,0-4.6-0.7-6.5-2l-21.1-14h-28.5c-6.5,0-11.8-5.3-11.8-11.8s5.3-11.8,11.8-11.8h32c2.3,0,4.6,0.7,6.5,2
	l24,16c4.3,2.9,6.2,8.2,4.7,13.2C170.7,429.6,166.1,432.9,160.9,432.9C160.9,432.9,160.9,432.9,160.9,432.9z"/>
<path d="M80.8,465c-6.5,0-11.8-5.3-11.8-11.8s5.3-11.8,11.8-11.8h64.1c6.5,0,11.8,5.3,11.8,11.8s-5.3,11.8-11.8,11.8H80.8z"/>
</svg>
