<?xml version="1.0" encoding="utf-8"?>
<!-- Generator: Adobe Illustrator 21.0.0, SVG Export Plug-In . SVG Version: 6.00 Build 0)  -->
<svg version="1.1" id="Capa_1" xmlns="http://www.w3.org/2000/svg" xmlns:xlink="http://www.w3.org/1999/xlink" x="0px" y="0px"
	 viewBox="0 0 512 512" style="enable-background:new 0 0 512 512;" xml:space="preserve">
<g>
	<path d="M441.7,474.9c-0.4-40.2-11.9-76.9-36-109.1c-31-41.6-72.4-66.6-123.9-73.7c-97.8-13.5-189.4,53.1-206.4,149.9
		c-1.9,10.8-2.2,22-3.2,33c-11.4,0-22.8,0-34.2,0c0-4,0-8,0-12c0.2-1,0.4-2,0.6-3.1c1.2-9,1.6-18.1,3.5-26.9
		c17.5-79.4,64.3-133.9,139.9-163.8c0.9-0.4,1.8-0.8,2.9-1.3c-0.8-0.6-1.2-0.9-1.6-1.2c-41.1-31.6-58.7-73-51-124.4
		c7.4-49.4,47.4-91.2,96.5-101.9c6.4-1.4,12.8-2.1,19.3-3.2c5.9,0,11.8,0,17.7,0c4.8,0.7,9.6,1.2,14.3,2.1
		c56.6,11.1,97.9,56.3,102.7,113.6c3.6,42.5-11.5,78-43.2,106.5c-3.3,3-7,5.6-10.7,8.6c1.1,0.5,2,0.9,2.8,1.2
		c33.8,12.3,62.8,31.8,87,58.5c30.9,34,49.3,73.8,55.2,119.3c0.7,5.3,1.2,10.6,1.8,16c0,4,0,8,0,12
		C464.5,474.9,453.1,474.9,441.7,474.9z M257,256c50.8,0,92.3-41.5,92.3-92.4c0-50.8-41.6-92.3-92.4-92.3
		c-50.8,0-92.3,41.6-92.3,92.4C164.6,214.6,206.1,256,257,256z"/>
</g>
</svg>
